<?xml version="1.0" encoding="UTF-8" standalone="no"?>
<svg
   width="673.77917pt"
   height="465.36227pt"
   viewBox="0 0 673.77917 465.36227"
   version="1.1"
   id="svg1085"
   sodipodi:docname="figure-1.svg"
   inkscape:version="1.1.2 (b8e25be833, 2022-02-05)"
   xmlns:inkscape="http://www.inkscape.org/namespaces/inkscape"
   xmlns:sodipodi="http://sodipodi.sourceforge.net/DTD/sodipodi-0.dtd"
   xmlns:xlink="http://www.w3.org/1999/xlink"
   xmlns="http://www.w3.org/2000/svg"
   xmlns:svg="http://www.w3.org/2000/svg">
  <sodipodi:namedview
     id="namedview1087"
     pagecolor="#ffffff"
     bordercolor="#666666"
     borderopacity="1.0"
     inkscape:pageshadow="2"
     inkscape:pageopacity="0.0"
     inkscape:pagecheckerboard="0"
     inkscape:document-units="pt"
     showgrid="false"
     inkscape:snap-page="true"
     fit-margin-top="0"
     fit-margin-left="0"
     fit-margin-right="0"
     fit-margin-bottom="0"
     inkscape:zoom="0.92748664"
     inkscape:cx="451.21944"
     inkscape:cy="221.56653"
     inkscape:window-width="1920"
     inkscape:window-height="1134"
     inkscape:window-x="-8"
     inkscape:window-y="-8"
     inkscape:window-maximized="1"
     inkscape:current-layer="svg1085" />
  <defs
     id="defs886">
    <g
       id="g884">
      <symbol
         overflow="visible"
         id="glyph0-0">
        <path
           style="stroke:none"
           d="m 1.5625,0 v -9.382812 h 9.386719 V 0 Z m 0.785156,-0.78125 h 7.816406 V -8.601562 H 2.347656 Z m 0,0"
           id="path824" />
      </symbol>
      <symbol
         overflow="visible"
         id="glyph0-1">
        <path
           style="stroke:none"
           d="M 3.542969,0.152344 C 3.070312,0.152344 2.640625,0.0820312 2.253906,-0.0625 1.859375,-0.207031 1.523438,-0.425781 1.246094,-0.722656 0.960938,-1.011719 0.742188,-1.382812 0.589844,-1.828125 0.433594,-2.273438 0.355469,-2.796875 0.359375,-3.402344 0.355469,-4 0.4375,-4.515625 0.601562,-4.953125 c 0.160157,-0.433594 0.375,-0.800781 0.644532,-1.101563 0.265625,-0.292968 0.601562,-0.523437 1.003906,-0.6875 0.398438,-0.160156 0.828125,-0.242187 1.292969,-0.242187 0.371093,0 0.730469,0.054687 1.082031,0.160156 0.34375,0.109375 0.65625,0.230469 0.933594,0.367188 v 1.289062 H 5.492188 C 5.40625,-5.238281 5.300781,-5.316406 5.175781,-5.40625 5.042969,-5.496094 4.890625,-5.589844 4.710938,-5.683594 4.550781,-5.761719 4.363281,-5.832031 4.148438,-5.894531 c -0.21875,-0.0625 -0.429688,-0.09375 -0.625,-0.09375 -0.597657,0 -1.074219,0.226562 -1.433594,0.675781 -0.363282,0.453125 -0.542969,1.089844 -0.539063,1.910156 -0.00391,0.808594 0.171875,1.4375 0.523438,1.886719 0.347656,0.449219 0.828125,0.671875 1.449219,0.671875 0.371093,0 0.730468,-0.074219 1.070312,-0.230469 0.335938,-0.152343 0.632812,-0.355469 0.898438,-0.601562 h 0.066406 v 1.289062 C 5.441406,-0.332031 5.296875,-0.265625 5.128906,-0.191406 4.957031,-0.113281 4.804688,-0.0585938 4.667969,-0.0234375 4.46875,0.03125 4.292969,0.0742188 4.140625,0.105469 3.984375,0.136719 3.785156,0.152344 3.542969,0.152344 Z m 0,0"
           id="path827" />
      </symbol>
      <symbol
         overflow="visible"
         id="glyph0-2">
        <path
           style="stroke:none"
           d="m 4.449219,-5.589844 h -0.0625 C 4.296875,-5.613281 4.207031,-5.625 4.113281,-5.632812 c -0.09375,-0.00391 -0.210937,-0.00781 -0.34375,-0.011719 -0.3125,0.00391 -0.617187,0.070312 -0.921875,0.203125 -0.304687,0.136718 -0.59375,0.335937 -0.867187,0.597656 V 0 H 0.832031 v -6.824219 h 1.148438 v 1.015625 C 2.398438,-6.175781 2.761719,-6.4375 3.074219,-6.59375 3.382812,-6.742188 3.6875,-6.820312 3.984375,-6.824219 c 0.117187,0.00391 0.203125,0.00781 0.261719,0.011719 0.058594,0.00781 0.125,0.015625 0.203125,0.023438 z m 0,0"
           id="path830" />
      </symbol>
      <symbol
         overflow="visible"
         id="glyph0-3">
        <path
           style="stroke:none"
           d="m 4.644531,-1.679688 v -1.894531 c -0.277343,0.023438 -0.625,0.058594 -1.039062,0.101563 -0.421875,0.042968 -0.757813,0.101562 -1.007813,0.179687 -0.3125,0.09375 -0.566406,0.238281 -0.761718,0.433594 -0.203126,0.195313 -0.300782,0.464844 -0.296876,0.808594 -0.00391,0.390625 0.105469,0.6875 0.328126,0.886719 0.21875,0.199218 0.542968,0.296874 0.96875,0.296874 0.359374,0 0.683593,-0.078124 0.980468,-0.234374 0.289063,-0.15625 0.566406,-0.347657 0.828125,-0.578126 z m 0,0.953126 C 4.546875,-0.65625 4.421875,-0.558594 4.265625,-0.4375 4.109375,-0.308594 3.957031,-0.210938 3.8125,-0.140625 3.605469,-0.0351562 3.410156,0.0429688 3.222656,0.101562 3.03125,0.15625 2.765625,0.1875 2.425781,0.1875 2.144531,0.1875 1.875,0.132812 1.625,0.0273438 1.367188,-0.078125 1.148438,-0.222656 0.960938,-0.414062 0.773438,-0.597656 0.625,-0.828125 0.519531,-1.105469 0.40625,-1.378906 0.351562,-1.671875 0.355469,-1.980469 c -0.003907,-0.46875 0.09375,-0.867187 0.296875,-1.203125 0.195312,-0.328125 0.511718,-0.59375 0.949218,-0.792968 0.378907,-0.171876 0.832032,-0.292969 1.355469,-0.363282 0.519531,-0.066406 1.082031,-0.117187 1.6875,-0.152344 v -0.21875 C 4.640625,-4.976562 4.597656,-5.191406 4.519531,-5.359375 4.433594,-5.523438 4.320312,-5.652344 4.179688,-5.742188 4.027344,-5.835938 3.847656,-5.898438 3.640625,-5.929688 3.425781,-5.960938 3.210938,-5.976562 2.988281,-5.976562 c -0.265625,0 -0.578125,0.042968 -0.9375,0.121093 -0.359375,0.082031 -0.71875,0.195313 -1.074219,0.34375 H 0.910156 v -1.164062 c 0.207032,-0.058594 0.511719,-0.128907 0.910156,-0.203125 0.394532,-0.070313 0.785157,-0.105469 1.171876,-0.109375 0.464843,0.00391 0.859374,0.039062 1.183593,0.109375 0.320313,0.074218 0.609375,0.207031 0.871094,0.398437 0.242187,0.1875 0.429687,0.429688 0.554687,0.726563 0.121094,0.296875 0.179688,0.660156 0.183594,1.085937 V 0 H 4.644531 Z m 0,0"
           id="path833" />
      </symbol>
      <symbol
         overflow="visible"
         id="glyph0-4">
        <path
           style="stroke:none"
           d="M 6.195312,0 H 5.046875 V -3.886719 C 5.042969,-4.195312 5.027344,-4.488281 5,-4.761719 4.964844,-5.03125 4.910156,-5.25 4.828125,-5.414062 4.734375,-5.582031 4.601562,-5.707031 4.433594,-5.792969 4.265625,-5.875 4.039062,-5.917969 3.75,-5.917969 c -0.285156,0 -0.582031,0.078125 -0.882812,0.230469 C 2.5625,-5.535156 2.269531,-5.335938 1.980469,-5.09375 V 0 H 0.832031 v -6.824219 h 1.148438 v 0.757813 c 0.339843,-0.300782 0.675781,-0.535156 1.011719,-0.699219 0.332031,-0.160156 0.683593,-0.242187 1.058593,-0.246094 0.667969,0.00391 1.195313,0.226563 1.574219,0.664063 0.378906,0.445312 0.566406,1.082031 0.570312,1.917968 z m 0,0"
           id="path836" />
      </symbol>
      <symbol
         overflow="visible"
         id="glyph0-5">
        <path
           style="stroke:none"
           d="M 6.488281,0 H 4.980469 L 2.429688,-3.292969 1.980469,-2.851562 V 0 H 0.832031 v -9.507812 h 1.148438 v 5.566406 l 2.699219,-2.882813 h 1.429687 l -2.804687,2.851563 z m 0,0"
           id="path839" />
      </symbol>
      <symbol
         overflow="visible"
         id="glyph0-6">
        <path
           style="stroke:none"
           d="M 6.195312,-6.824219 2.523438,2.515625 H 1.296875 l 1.21875,-2.84375 -2.4804688,-6.496094 H 1.277344 l 1.863281,5.050781 1.855469,-5.050781 z m 0,0"
           id="path842" />
      </symbol>
      <symbol
         overflow="visible"
         id="glyph0-7">
        <path
           style="stroke:none"
           d="m 8.578125,0 v -3.945312 c 0,-0.3125 -0.015625,-0.605469 -0.039063,-0.871094 C 8.511719,-5.082031 8.460938,-5.289062 8.386719,-5.445312 8.300781,-5.601562 8.1875,-5.722656 8.039062,-5.800781 7.886719,-5.878906 7.683594,-5.917969 7.429688,-5.917969 c -0.238282,0 -0.492188,0.074219 -0.761719,0.21875 -0.273438,0.144531 -0.554688,0.351563 -0.839844,0.621094 0.00391,0.074219 0.00781,0.15625 0.015625,0.25 0,0.09375 0.00391,0.207031 0.00781,0.335937 V 0 H 4.703125 V -3.945312 C 4.699219,-4.257812 4.6875,-4.550781 4.664062,-4.816406 4.640625,-5.082031 4.589844,-5.289062 4.515625,-5.445312 4.433594,-5.601562 4.316406,-5.722656 4.167969,-5.800781 4.011719,-5.878906 3.808594,-5.917969 3.554688,-5.917969 c -0.25,0 -0.511719,0.078125 -0.78125,0.230469 -0.277344,0.15625 -0.539063,0.355469 -0.792969,0.59375 V 0 H 0.832031 v -6.824219 h 1.148438 v 0.757813 c 0.296875,-0.296875 0.59375,-0.53125 0.890625,-0.699219 0.296875,-0.160156 0.621094,-0.242187 0.976562,-0.246094 0.402344,0.00391 0.757813,0.09375 1.070313,0.273438 0.308593,0.183593 0.546875,0.484375 0.714843,0.902343 0.34375,-0.382812 0.683594,-0.671874 1.011719,-0.875 0.328125,-0.195312 0.6875,-0.296874 1.078125,-0.300781 0.289063,0.00391 0.554688,0.050781 0.796875,0.136719 0.242188,0.09375 0.453125,0.238281 0.632813,0.441406 0.179687,0.210938 0.320312,0.472656 0.421875,0.777344 0.101562,0.3125 0.152343,0.699219 0.152343,1.164062 V 0 Z m 0,0"
           id="path845" />
      </symbol>
      <symbol
         overflow="visible"
         id="glyph0-8">
        <path
           style="stroke:none"
           d="M 6.445312,-3.410156 C 6.445312,-2.261719 6.167969,-1.375 5.613281,-0.75 5.058594,-0.125 4.320312,0.1875 3.402344,0.1875 2.453125,0.1875 1.707031,-0.132812 1.164062,-0.777344 0.617188,-1.421875 0.34375,-2.300781 0.347656,-3.410156 0.34375,-4.550781 0.625,-5.433594 1.1875,-6.066406 c 0.558594,-0.625 1.296875,-0.941406 2.214844,-0.945313 0.917968,0.00391 1.65625,0.320313 2.210937,0.945313 0.554688,0.632812 0.832031,1.515625 0.832031,2.65625 z m -1.183593,0 c 0,-0.882813 -0.164063,-1.539063 -0.484375,-1.96875 -0.328125,-0.429688 -0.785156,-0.644532 -1.375,-0.644532 -0.601563,0 -1.0625,0.214844 -1.382813,0.644532 -0.324219,0.429687 -0.484375,1.085937 -0.484375,1.96875 0,0.859375 0.160156,1.511718 0.484375,1.949218 0.320313,0.445313 0.78125,0.664063 1.382813,0.660157 0.589844,0.003906 1.046875,-0.210938 1.371094,-0.648438 0.324218,-0.429687 0.488281,-1.085937 0.488281,-1.960937 z m 0,0"
           id="path848" />
      </symbol>
      <symbol
         overflow="visible"
         id="glyph0-9">
        <path
           style="stroke:none"
           d="M 6.085938,0 H 4.9375 v -0.695312 c -0.183594,0.152343 -0.339844,0.277343 -0.464844,0.375 C 4.339844,-0.222656 4.1875,-0.132812 4.015625,-0.0546875 3.847656,0.0234375 3.679688,0.078125 3.503906,0.125 3.328125,0.164062 3.125,0.1875 2.894531,0.1875 2.523438,0.1875 2.179688,0.113281 1.867188,-0.0429688 1.550781,-0.191406 1.28125,-0.417969 1.0625,-0.722656 0.835938,-1.019531 0.664062,-1.390625 0.542969,-1.835938 c -0.125,-0.4375 -0.1875,-0.945312 -0.183594,-1.523437 -0.003906,-0.59375 0.074219,-1.113281 0.230469,-1.554687 0.152344,-0.433594 0.367187,-0.816407 0.644531,-1.144532 0.246094,-0.296875 0.546875,-0.527344 0.898437,-0.699218 0.351563,-0.164063 0.71875,-0.25 1.109376,-0.253907 0.339843,0.00391 0.640624,0.042969 0.894531,0.113281 0.25,0.078126 0.515625,0.191407 0.800781,0.347657 V -9.507812 H 6.085938 Z M 4.9375,-1.660156 v -3.9375 C 4.648438,-5.730469 4.390625,-5.828125 4.167969,-5.882812 3.941406,-5.933594 3.699219,-5.957031 3.433594,-5.960938 2.839844,-5.957031 2.375,-5.738281 2.046875,-5.296875 c -0.335937,0.441406 -0.5,1.082031 -0.5,1.914063 0,0.804687 0.125,1.417968 0.382813,1.84375 0.253906,0.425781 0.667968,0.636718 1.234374,0.636718 0.300782,0 0.601563,-0.066406 0.910157,-0.203125 C 4.375,-1.242188 4.664062,-1.425781 4.9375,-1.660156 Z m 0,0"
           id="path851" />
      </symbol>
      <symbol
         overflow="visible"
         id="glyph0-10">
        <path
           style="stroke:none"
           d="M 6.195312,0 H 5.046875 V -3.886719 C 5.042969,-4.195312 5.027344,-4.488281 5,-4.761719 4.964844,-5.03125 4.910156,-5.25 4.828125,-5.414062 4.734375,-5.582031 4.601562,-5.707031 4.433594,-5.792969 4.265625,-5.875 4.039062,-5.917969 3.75,-5.917969 c -0.285156,0 -0.582031,0.078125 -0.882812,0.230469 C 2.5625,-5.535156 2.269531,-5.335938 1.980469,-5.09375 V 0 H 0.832031 v -9.507812 h 1.148438 v 3.441406 c 0.339843,-0.300782 0.675781,-0.535156 1.011719,-0.699219 0.332031,-0.160156 0.683593,-0.242187 1.058593,-0.246094 0.667969,0.00391 1.195313,0.226563 1.574219,0.664063 0.378906,0.445312 0.566406,1.082031 0.570312,1.917968 z m 0,0"
           id="path854" />
      </symbol>
      <symbol
         overflow="visible"
         id="glyph0-11">
        <path
           style="stroke:none"
           d="M 3.792969,0.160156 C 2.703125,0.15625 1.859375,-0.144531 1.261719,-0.757812 0.65625,-1.367188 0.355469,-2.238281 0.359375,-3.371094 c -0.003906,-1.109375 0.289063,-1.996094 0.875,-2.652344 0.582031,-0.65625 1.34375,-0.984374 2.285156,-0.988281 0.421875,0.00391 0.796875,0.066407 1.125,0.183594 0.324219,0.125 0.609375,0.3125 0.855469,0.570313 0.238281,0.265624 0.425781,0.585937 0.558594,0.960937 0.132812,0.375 0.199218,0.835937 0.199218,1.378906 v 0.625 H 1.527344 c -0.00391,0.796875 0.195312,1.40625 0.597656,1.820313 0.398438,0.421875 0.949219,0.628906 1.65625,0.628906 0.25,0 0.5,-0.027344 0.742188,-0.085938 0.242187,-0.054687 0.460937,-0.128906 0.65625,-0.21875 0.207031,-0.09375 0.378906,-0.183593 0.523437,-0.269531 0.140625,-0.085937 0.261719,-0.167969 0.355469,-0.25 h 0.070312 v 1.253907 C 5.992188,-0.359375 5.824219,-0.292969 5.625,-0.214844 5.425781,-0.132812 5.246094,-0.0703125 5.089844,-0.03125 4.863281,0.03125 4.660156,0.0742188 4.480469,0.109375 4.296875,0.140625 4.066406,0.15625 3.792969,0.160156 Z m 1.34375,-4.332031 C 5.125,-4.480469 5.089844,-4.746094 5.027344,-4.972656 4.960938,-5.195312 4.867188,-5.386719 4.746094,-5.542969 4.613281,-5.710938 4.441406,-5.839844 4.230469,-5.929688 4.019531,-6.019531 3.757812,-6.0625 3.453125,-6.066406 c -0.3125,0.00391 -0.570313,0.046875 -0.78125,0.136718 -0.214844,0.09375 -0.410156,0.230469 -0.582031,0.402344 -0.175782,0.179688 -0.308594,0.375 -0.394532,0.59375 -0.09375,0.21875 -0.148437,0.472656 -0.167968,0.761719 z m 0,0"
           id="path857" />
      </symbol>
      <symbol
         overflow="visible"
         id="glyph0-12">
        <path
           style="stroke:none"
           d="M 4.421875,-8.40625 H 4.363281 C 4.257812,-8.441406 4.109375,-8.476562 3.921875,-8.511719 3.726562,-8.546875 3.558594,-8.566406 3.410156,-8.566406 c -0.484375,0 -0.832031,0.109375 -1.035156,0.328125 -0.210938,0.21875 -0.3125,0.613281 -0.308594,1.183593 v 0.230469 h 1.898438 v 0.953125 H 2.101562 V 0 H 0.953125 V -5.871094 H 0.175781 V -6.824219 H 0.953125 V -7.050781 C 0.949219,-7.871094 1.144531,-8.496094 1.542969,-8.925781 1.933594,-9.347656 2.5,-9.5625 3.242188,-9.566406 c 0.210937,0.00391 0.421874,0.015625 0.625,0.035156 0.203124,0.023438 0.386718,0.046875 0.554687,0.074219 z m 0,0"
           id="path860" />
      </symbol>
      <symbol
         overflow="visible"
         id="glyph0-13">
        <path
           style="stroke:none"
           d="M 6.144531,0 H 4.996094 V -0.757812 C 4.640625,-0.445312 4.304688,-0.210938 3.988281,-0.0507812 3.667969,0.109375 3.3125,0.1875 2.925781,0.1875 2.625,0.1875 2.347656,0.136719 2.085938,0.0390625 1.820312,-0.0585938 1.589844,-0.210938 1.398438,-0.421875 1.199219,-0.632812 1.046875,-0.898438 0.941406,-1.21875 0.832031,-1.539062 0.777344,-1.929688 0.78125,-2.394531 V -6.824219 H 1.929688 V -2.9375 c -0.00391,0.367188 0.011718,0.667969 0.039062,0.902344 0.027344,0.242187 0.085938,0.449218 0.183594,0.625 0.085937,0.175781 0.214844,0.304687 0.378906,0.386718 0.160156,0.082032 0.390625,0.121094 0.695312,0.121094 0.277344,0 0.578126,-0.078125 0.898438,-0.238281 0.316406,-0.15625 0.605469,-0.351563 0.871094,-0.589844 v -5.09375 h 1.148437 z m 0,0"
           id="path863" />
      </symbol>
      <symbol
         overflow="visible"
         id="glyph0-14">
        <path
           style="stroke:none"
           d="M 2.003906,0 H 0.855469 v -9.507812 h 1.148437 z m 0,0"
           id="path866" />
      </symbol>
      <symbol
         overflow="visible"
         id="glyph0-15">
        <path
           style="stroke:none"
           d="M 4.9375,-1.851562 V -5.597656 C 4.648438,-5.730469 4.382812,-5.828125 4.144531,-5.890625 3.898438,-5.945312 3.660156,-5.976562 3.421875,-5.980469 c -0.585937,0.00391 -1.046875,0.21875 -1.375,0.640625 -0.335937,0.429688 -0.5,1.042969 -0.5,1.839844 0,0.761719 0.125,1.335938 0.378906,1.730469 0.253907,0.394531 0.667969,0.59375 1.238281,0.589843 0.296876,0.00391 0.601563,-0.054687 0.917969,-0.175781 C 4.398438,-1.472656 4.683594,-1.640625 4.9375,-1.851562 Z M 1.074219,1.09375 c 0.074219,0.027344 0.191406,0.070312 0.34375,0.128906 0.148437,0.054688 0.316406,0.105469 0.511719,0.15625 0.210937,0.050782 0.40625,0.09375 0.585937,0.128906 0.175781,0.03125 0.375,0.050782 0.589844,0.050782 0.351562,0 0.648437,-0.046875 0.898437,-0.140625 0.242188,-0.09375 0.4375,-0.226563 0.578125,-0.390625 0.128907,-0.171875 0.21875,-0.363282 0.273438,-0.582032 0.050781,-0.21875 0.078125,-0.4687495 0.082031,-0.75 v -0.597656 c -0.3125,0.269532 -0.617188,0.46875 -0.914062,0.59375 -0.300782,0.128906 -0.671876,0.191406 -1.117188,0.191406 -0.777344,0 -1.398438,-0.289062 -1.855469,-0.867187 C 0.585938,-1.5625 0.355469,-2.390625 0.359375,-3.476562 0.355469,-4.039062 0.4375,-4.542969 0.597656,-4.980469 c 0.15625,-0.4375 0.367188,-0.808593 0.640625,-1.117187 0.253907,-0.289063 0.558594,-0.515625 0.910157,-0.675782 0.347656,-0.15625 0.710937,-0.234374 1.089843,-0.238281 0.351563,0.00391 0.65625,0.046875 0.917969,0.125 0.257812,0.085938 0.519531,0.203125 0.78125,0.355469 l 0.066406,-0.292969 h 1.082032 v 6.046875 C 6.082031,0.382812 5.828125,1.230469 5.328125,1.773438 4.820312,2.3125 4.050781,2.582031 3.011719,2.585938 2.675781,2.582031 2.332031,2.554688 1.988281,2.503906 1.636719,2.449219 1.3125,2.378906 1.015625,2.289062 V 1.09375 Z m 0,0"
           id="path869" />
      </symbol>
      <symbol
         overflow="visible"
         id="glyph0-16">
        <path
           style="stroke:none"
           d="M 2.894531,0.132812 C 2.265625,0.128906 1.773438,-0.046875 1.425781,-0.398438 1.074219,-0.753906 0.902344,-1.316406 0.902344,-2.089844 v -3.78125 H 0.128906 v -0.953125 h 0.773438 v -1.960937 h 1.148437 v 1.960937 h 2.117188 v 0.953125 H 2.050781 v 3.242188 c 0,0.347656 0.00391,0.613281 0.019531,0.800781 0.00781,0.1875 0.054688,0.363281 0.140626,0.527344 0.066406,0.144531 0.179687,0.253906 0.335937,0.320312 0.152344,0.074219 0.363281,0.109375 0.628906,0.105469 0.1875,0.003906 0.367188,-0.023438 0.542969,-0.082031 0.175781,-0.050781 0.300781,-0.097657 0.378906,-0.136719 H 4.167969 V -0.0625 C 3.949219,0 3.730469,0.046875 3.507812,0.0820312 3.285156,0.113281 3.082031,0.128906 2.894531,0.132812 Z m 0,0"
           id="path872" />
      </symbol>
      <symbol
         overflow="visible"
         id="glyph0-17">
        <path
           style="stroke:none"
           d="M 2.003906,0 H 0.855469 V -6.824219 H 2.003906 Z M 2.082031,-7.964844 H 0.777344 V -9.15625 h 1.304687 z m 0,0"
           id="path875" />
      </symbol>
      <symbol
         overflow="visible"
         id="glyph0-18">
        <path
           style="stroke:none"
           d="M 9.101562,-6.824219 7.375,0 H 6.3125 L 4.644531,-5.261719 2.988281,0 H 1.929688 L 0.183594,-6.824219 h 1.195312 l 1.207032,5.285157 1.617187,-5.285157 H 5.148438 L 6.8125,-1.539062 7.949219,-6.824219 Z m 0,0"
           id="path878" />
      </symbol>
      <symbol
         overflow="visible"
         id="glyph0-19">
        <path
           style="stroke:none"
           d="M 11.125,-9.097656 8.839844,0 H 7.476562 L 5.625,-7.550781 3.816406,0 H 2.488281 L 0.160156,-9.097656 h 1.238282 l 1.832031,7.5625 1.820312,-7.5625 H 6.28125 l 1.839844,7.636718 1.820312,-7.636718 z m 0,0"
           id="path881" />
      </symbol>
    </g>
  </defs>
  <g
     id="surface16"
     transform="translate(0.38959965,111.3896)">
    <path
       style="fill:#ffffff;fill-opacity:1;fill-rule:nonzero;stroke:none"
       d="M 0,353.97266 V 0.0273438 H 673.00391 V 353.97266 Z m 0,0"
       id="path888" />
    <path
       style="fill:#ffffff;fill-opacity:1;fill-rule:nonzero;stroke:#000000;stroke-width:1;stroke-linecap:butt;stroke-linejoin:miter;stroke-miterlimit:4;stroke-opacity:1"
       d="m 234.10237,-179.2606 c 0,9.94057 -12.16034,17.99856 -27.15862,17.99856 -15.0014,0 -27.16175,-8.05799 -27.16175,-17.99856 0,-9.9437 12.16035,-18.00168 27.16175,-18.00168 14.99828,0 27.15862,8.05798 27.15862,18.00168 z m 0,0"
       transform="matrix(1.251185,0,0,1.251185,5.004741,348.96789)"
       id="path890" />
    <g
       style="fill:#7d7d7d;fill-opacity:1"
       id="g904">
      <use
         xlink:href="#glyph0-1"
         x="245.78516"
         y="128.4326"
         id="use892"
         width="100%"
         height="100%" />
      <use
         xlink:href="#glyph0-2"
         x="251.55844"
         y="128.4326"
         id="use894"
         width="100%"
         height="100%" />
      <use
         xlink:href="#glyph0-3"
         x="256.06711"
         y="128.4326"
         id="use896"
         width="100%"
         height="100%" />
      <use
         xlink:href="#glyph0-4"
         x="262.63461"
         y="128.4326"
         id="use898"
         width="100%"
         height="100%" />
      <use
         xlink:href="#glyph0-5"
         x="269.61145"
         y="128.4326"
         id="use900"
         width="100%"
         height="100%" />
      <use
         xlink:href="#glyph0-6"
         x="275.84293"
         y="128.4326"
         id="use902"
         width="100%"
         height="100%" />
    </g>
    <path
       style="fill:#ffffff;fill-opacity:1;fill-rule:nonzero;stroke:#000000;stroke-width:1;stroke-linecap:butt;stroke-linejoin:miter;stroke-miterlimit:4;stroke-opacity:1"
       d="m 285.8377,-66.732918 c 0,9.940575 -11.11134,17.99856 -24.8171,17.99856 -13.70887,0 -24.82021,-8.057985 -24.82021,-17.99856 0,-9.943697 11.11134,-18.001682 24.82021,-18.001682 13.70576,0 24.8171,8.057985 24.8171,18.001682 z m 0,0"
       transform="matrix(1.251185,0,0,1.251185,5.004741,348.96789)"
       id="path906" />
    <g
       style="fill:#7d7d7d;fill-opacity:1"
       id="g916">
      <use
         xlink:href="#glyph0-7"
         x="316.08203"
         y="269.22556"
         id="use908"
         width="100%"
         height="100%" />
      <use
         xlink:href="#glyph0-8"
         x="326.59003"
         y="269.22556"
         id="use910"
         width="100%"
         height="100%" />
      <use
         xlink:href="#glyph0-8"
         x="333.38358"
         y="269.22556"
         id="use912"
         width="100%"
         height="100%" />
      <use
         xlink:href="#glyph0-9"
         x="340.17712"
         y="269.22556"
         id="use914"
         width="100%"
         height="100%" />
    </g>
    <path
       style="fill:#ffffff;fill-opacity:1;fill-rule:nonzero;stroke:#000000;stroke-width:1;stroke-linecap:butt;stroke-linejoin:miter;stroke-miterlimit:4;stroke-opacity:1"
       d="m 408.68372,-86.651533 c 0,9.940575 -13.88683,18.001683 -31.01434,18.001683 -17.12751,0 -31.01434,-8.061108 -31.01434,-18.001683 0,-9.940575 13.88683,-17.998557 31.01434,-17.998557 17.12751,0 31.01434,8.057982 31.01434,17.998557 z m 0,0"
       transform="matrix(1.251185,0,0,1.251185,5.004741,348.96789)"
       id="path918" />
    <g
       style="fill:#7d7d7d;fill-opacity:1"
       id="g936">
      <use
         xlink:href="#glyph0-1"
         x="455.41406"
         y="244.3037"
         id="use920"
         width="100%"
         height="100%" />
      <use
         xlink:href="#glyph0-10"
         x="461.18735"
         y="244.3037"
         id="use922"
         width="100%"
         height="100%" />
      <use
         xlink:href="#glyph0-11"
         x="468.16418"
         y="244.3037"
         id="use924"
         width="100%"
         height="100%" />
      <use
         xlink:href="#glyph0-11"
         x="474.75"
         y="244.3037"
         id="use926"
         width="100%"
         height="100%" />
      <use
         xlink:href="#glyph0-2"
         x="481.33585"
         y="244.3037"
         id="use928"
         width="100%"
         height="100%" />
      <use
         xlink:href="#glyph0-12"
         x="485.84451"
         y="244.3037"
         id="use930"
         width="100%"
         height="100%" />
      <use
         xlink:href="#glyph0-13"
         x="489.82776"
         y="244.3037"
         id="use932"
         width="100%"
         height="100%" />
      <use
         xlink:href="#glyph0-14"
         x="496.8046"
         y="244.3037"
         id="use934"
         width="100%"
         height="100%" />
    </g>
    <path
       style="fill:#ffffff;fill-opacity:1;fill-rule:nonzero;stroke:#000000;stroke-width:1;stroke-linecap:butt;stroke-linejoin:miter;stroke-miterlimit:4;stroke-opacity:1"
       d="m 530.04678,-255.99098 c 0,9.94058 -9.76261,18.00168 -21.80432,18.00168 -12.04171,0 -21.80433,-8.0611 -21.80433,-18.00168 0,-9.94057 9.76262,-17.99856 21.80433,-17.99856 12.04171,0 21.80432,8.05799 21.80432,17.99856 z m 0,0"
       transform="matrix(1.251185,0,0,1.251185,5.004741,348.96789)"
       id="path938" />
    <g
       style="fill:#7d7d7d;fill-opacity:1"
       id="g948">
      <use
         xlink:href="#glyph0-9"
         x="628.25"
         y="32.428692"
         id="use940"
         width="100%"
         height="100%" />
      <use
         xlink:href="#glyph0-2"
         x="635.16571"
         y="32.428692"
         id="use942"
         width="100%"
         height="100%" />
      <use
         xlink:href="#glyph0-13"
         x="639.67438"
         y="32.428692"
         id="use944"
         width="100%"
         height="100%" />
      <use
         xlink:href="#glyph0-15"
         x="646.65125"
         y="32.428692"
         id="use946"
         width="100%"
         height="100%" />
    </g>
    <path
       style="fill:#ffffff;fill-opacity:1;fill-rule:nonzero;stroke:#000000;stroke-width:1;stroke-linecap:butt;stroke-linejoin:miter;stroke-miterlimit:4;stroke-opacity:1"
       d="m 317.30162,-256.89013 c 0,9.9437 -9.45978,18.00169 -21.12997,18.00169 -11.67019,0 -21.12997,-8.05799 -21.12997,-18.00169 0,-9.94057 9.45978,-17.99856 21.12997,-17.99856 11.67019,0 21.12997,8.05799 21.12997,17.99856 z m 0,0"
       transform="matrix(1.251185,0,0,1.251185,5.004741,348.96789)"
       id="path950" />
    <g
       style="fill:#7d7d7d;fill-opacity:1"
       id="g962">
      <use
         xlink:href="#glyph0-16"
         x="363.04297"
         y="31.307596"
         id="use952"
         width="100%"
         height="100%" />
      <use
         xlink:href="#glyph0-17"
         x="367.22784"
         y="31.307596"
         id="use954"
         width="100%"
         height="100%" />
      <use
         xlink:href="#glyph0-2"
         x="370.08701"
         y="31.307596"
         id="use956"
         width="100%"
         height="100%" />
      <use
         xlink:href="#glyph0-11"
         x="374.59567"
         y="31.307596"
         id="use958"
         width="100%"
         height="100%" />
      <use
         xlink:href="#glyph0-9"
         x="381.18149"
         y="31.307596"
         id="use960"
         width="100%"
         height="100%" />
    </g>
    <path
       style="fill:#ffffff;fill-opacity:1;fill-rule:nonzero;stroke:#000000;stroke-width:1;stroke-linecap:butt;stroke-linejoin:miter;stroke-miterlimit:4;stroke-opacity:1"
       d="m 130.04791,-126.21402 c 0,9.94057 -12.53812,17.99856 -28.0047,17.99856 -15.463466,0 -28.001578,-8.05799 -28.001578,-17.99856 0,-9.94058 12.538112,-18.00169 28.001578,-18.00169 15.46658,0 28.0047,8.06111 28.0047,18.00169 z m 0,0"
       transform="matrix(1.251185,0,0,1.251185,5.004741,348.96789)"
       id="path964" />
    <g
       style="fill:#7d7d7d;fill-opacity:1"
       id="g978">
      <use
         xlink:href="#glyph0-10"
         x="113.38672"
         y="194.8037"
         id="use966"
         width="100%"
         height="100%" />
      <use
         xlink:href="#glyph0-13"
         x="120.36354"
         y="194.8037"
         id="use968"
         width="100%"
         height="100%" />
      <use
         xlink:href="#glyph0-4"
         x="127.34036"
         y="194.8037"
         id="use970"
         width="100%"
         height="100%" />
      <use
         xlink:href="#glyph0-15"
         x="134.31718"
         y="194.8037"
         id="use972"
         width="100%"
         height="100%" />
      <use
         xlink:href="#glyph0-2"
         x="141.23293"
         y="194.8037"
         id="use974"
         width="100%"
         height="100%" />
      <use
         xlink:href="#glyph0-6"
         x="145.74159"
         y="194.8037"
         id="use976"
         width="100%"
         height="100%" />
    </g>
    <path
       style="fill:#ffffff;fill-opacity:1;fill-rule:nonzero;stroke:#000000;stroke-width:1;stroke-linecap:butt;stroke-linejoin:miter;stroke-miterlimit:4;stroke-opacity:1"
       d="m 185.20499,-18.000997 c 0,9.940575 -13.88372,18.001682427 -31.01123,18.001682427 -17.13063,0 -31.01434,-8.061107427 -31.01434,-18.001682427 0,-9.940575 13.88371,-17.99856 31.01434,-17.99856 17.12751,0 31.01123,8.057985 31.01123,17.99856 z m 0,0"
       transform="matrix(1.251185,0,0,1.251185,5.004741,348.96789)"
       id="path980" />
    <g
       style="fill:#7d7d7d;fill-opacity:1"
       id="g996">
      <use
         xlink:href="#glyph0-18"
         x="175.58203"
         y="330.19821"
         id="use982"
         width="100%"
         height="100%" />
      <use
         xlink:href="#glyph0-11"
         x="184.86816"
         y="330.19821"
         id="use984"
         width="100%"
         height="100%" />
      <use
         xlink:href="#glyph0-3"
         x="191.45399"
         y="330.19821"
         id="use986"
         width="100%"
         height="100%" />
      <use
         xlink:href="#glyph0-16"
         x="198.0215"
         y="330.19821"
         id="use988"
         width="100%"
         height="100%" />
      <use
         xlink:href="#glyph0-10"
         x="202.20638"
         y="330.19821"
         id="use990"
         width="100%"
         height="100%" />
      <use
         xlink:href="#glyph0-11"
         x="209.1832"
         y="330.19821"
         id="use992"
         width="100%"
         height="100%" />
      <use
         xlink:href="#glyph0-2"
         x="215.76903"
         y="330.19821"
         id="use994"
         width="100%"
         height="100%" />
    </g>
    <path
       style="fill:#ffffff;fill-opacity:1;fill-rule:nonzero;stroke:#000000;stroke-width:1;stroke-linecap:butt;stroke-linejoin:miter;stroke-miterlimit:4;stroke-opacity:1"
       d="m 432.38625,-204.91128 c 0,9.94057 -11.63896,17.99856 -25.99722,17.99856 -14.35827,0 -25.99723,-8.05799 -25.99723,-17.99856 0,-9.94058 11.63896,-17.99856 25.99723,-17.99856 14.35826,0 25.99722,8.05798 25.99722,17.99856 z m 0,0"
       transform="matrix(1.251185,0,0,1.251185,5.004741,348.96789)"
       id="path998" />
    <g
       style="fill:#7d7d7d;fill-opacity:1"
       id="g1012">
      <use
         xlink:href="#glyph0-1"
         x="496.62109"
         y="96.338844"
         id="use1000"
         width="100%"
         height="100%" />
      <use
         xlink:href="#glyph0-8"
         x="502.39438"
         y="96.338844"
         id="use1002"
         width="100%"
         height="100%" />
      <use
         xlink:href="#glyph0-12"
         x="509.18793"
         y="96.338844"
         id="use1004"
         width="100%"
         height="100%" />
      <use
         xlink:href="#glyph0-12"
         x="513.1712"
         y="96.338844"
         id="use1006"
         width="100%"
         height="100%" />
      <use
         xlink:href="#glyph0-11"
         x="517.15448"
         y="96.338844"
         id="use1008"
         width="100%"
         height="100%" />
      <use
         xlink:href="#glyph0-11"
         x="523.7403"
         y="96.338844"
         id="use1010"
         width="100%"
         height="100%" />
    </g>
    <path
       style="fill:#ffffff;fill-opacity:1;fill-rule:nonzero;stroke:#000000;stroke-width:1;stroke-linecap:butt;stroke-linejoin:miter;stroke-miterlimit:4;stroke-opacity:1"
       d="m 94.106983,-32.796344 c 0,9.940575 -21.07377,17.99856 -47.070996,17.99856 -25.997227,0 -47.0709963,-8.057985 -47.0709963,-17.99856 0,-9.940575 21.0737693,-18.001682 47.0709963,-18.001682 25.997226,0 47.070996,8.061107 47.070996,18.001682 z m 0,0"
       transform="matrix(1.251185,0,0,1.251185,5.004741,348.96789)"
       id="path1014" />
    <g
       style="fill:#7d7d7d;fill-opacity:1"
       id="g1038">
      <use
         xlink:href="#glyph0-18"
         x="25.074219"
         y="311.68649"
         id="use1016"
         width="100%"
         height="100%" />
      <use
         xlink:href="#glyph0-3"
         x="34.360359"
         y="311.68649"
         id="use1018"
         width="100%"
         height="100%" />
      <use
         xlink:href="#glyph0-2"
         x="40.92786"
         y="311.68649"
         id="use1020"
         width="100%"
         height="100%" />
      <use
         xlink:href="#glyph0-7"
         x="45.436523"
         y="311.68649"
         id="use1022"
         width="100%"
         height="100%" />
      <use
         xlink:href="#glyph0-19"
         x="55.944523"
         y="311.68649"
         id="use1024"
         width="100%"
         height="100%" />
      <use
         xlink:href="#glyph0-11"
         x="67.228409"
         y="311.68649"
         id="use1026"
         width="100%"
         height="100%" />
      <use
         xlink:href="#glyph0-3"
         x="73.814232"
         y="311.68649"
         id="use1028"
         width="100%"
         height="100%" />
      <use
         xlink:href="#glyph0-16"
         x="80.381737"
         y="311.68649"
         id="use1030"
         width="100%"
         height="100%" />
      <use
         xlink:href="#glyph0-10"
         x="84.566605"
         y="311.68649"
         id="use1032"
         width="100%"
         height="100%" />
      <use
         xlink:href="#glyph0-11"
         x="91.543427"
         y="311.68649"
         id="use1034"
         width="100%"
         height="100%" />
      <use
         xlink:href="#glyph0-2"
         x="98.129257"
         y="311.68649"
         id="use1036"
         width="100%"
         height="100%" />
    </g>
    <path
       style="fill:none;stroke:#0000ff;stroke-width:1;stroke-linecap:butt;stroke-linejoin:miter;stroke-miterlimit:4;stroke-dasharray:5, 2;stroke-opacity:1"
       d="m 215.39199,-161.6804 c 9.50037,19.76876 24.93261,51.88518 35.18227,73.21184"
       transform="matrix(1.251185,0,0,1.251185,5.004741,348.96789)"
       id="path1040" />
    <path
       style="fill:none;stroke:#0000ff;stroke-width:1;stroke-linecap:butt;stroke-linejoin:miter;stroke-miterlimit:4;stroke-opacity:1"
       d="m 254.38315,-84.58162 -3.74333,-3.74957 0.59007,5.263759 z m 0,0"
       transform="matrix(1.251185,0,0,1.251185,5.004741,348.96789)"
       id="path1042" />
    <path
       style="fill:none;stroke:#0000ff;stroke-width:1;stroke-linecap:butt;stroke-linejoin:miter;stroke-miterlimit:4;stroke-dasharray:5, 2;stroke-opacity:1"
       d="m 347.62911,-81.522021 c -17.62079,3.009646 -39.78103,6.793559 -57.27694,9.778229"
       transform="matrix(1.251185,0,0,1.251185,5.004741,348.96789)"
       id="path1044" />
    <path
       style="fill:none;stroke:#0000ff;stroke-width:1;stroke-linecap:butt;stroke-linejoin:miter;stroke-miterlimit:4;stroke-opacity:1"
       d="m 285.37876,-69.118156 4.63311,-2.566317 -5.22318,-0.883538 z m 0,0"
       transform="matrix(1.251185,0,0,1.251185,5.004741,348.96789)"
       id="path1046" />
    <path
       style="fill:none;stroke:#00ba00;stroke-width:1;stroke-linecap:butt;stroke-linejoin:miter;stroke-miterlimit:4;stroke-opacity:1"
       d="m 281.036,-243.72136 c -14.66734,12.7629 -37.03051,32.21633 -53.35254,46.41537"
       transform="matrix(1.251185,0,0,1.251185,5.004741,348.96789)"
       id="path1048" />
    <path
       style="fill:#00ba00;fill-opacity:1;fill-rule:nonzero;stroke:#00ba00;stroke-width:1;stroke-linecap:butt;stroke-linejoin:miter;stroke-miterlimit:4;stroke-opacity:1"
       d="m 228.5951,-195.77932 -4.92034,1.96064 2.62252,-4.60188 z m 0,0"
       transform="matrix(1.251185,0,0,1.251185,5.004741,348.96789)"
       id="path1050" />
    <path
       style="fill:none;stroke:#00ba00;stroke-width:1;stroke-linecap:butt;stroke-linejoin:miter;stroke-miterlimit:4;stroke-opacity:1"
       d="m 124.29086,-137.46585 c 16.38135,-8.28278 38.72579,-19.58144 56.05311,-28.345"
       transform="matrix(1.251185,0,0,1.251185,5.004741,348.96789)"
       id="path1052" />
    <path
       style="fill:#00ba00;fill-opacity:1;fill-rule:nonzero;stroke:#00ba00;stroke-width:1;stroke-linecap:butt;stroke-linejoin:miter;stroke-miterlimit:4;stroke-opacity:1"
       d="m 179.83508,-167.51549 5.25439,-0.69309 -3.67464,3.81825 z m 0,0"
       transform="matrix(1.251185,0,0,1.251185,5.004741,348.96789)"
       id="path1054" />
    <path
       style="fill:none;stroke:#000000;stroke-width:1;stroke-linecap:butt;stroke-linejoin:miter;stroke-miterlimit:4;stroke-opacity:1"
       d="m 178.70178,-29.181022 c 16.89023,-7.705194 39.30023,-17.929875 56.47458,-25.763073"
       transform="matrix(1.251185,0,0,1.251185,5.004741,348.96789)"
       id="path1056" />
    <path
       style="fill:#000000;fill-opacity:1;fill-rule:nonzero;stroke:#000000;stroke-width:1;stroke-linecap:butt;stroke-linejoin:miter;stroke-miterlimit:4;stroke-opacity:1"
       d="m 234.59566,-56.60502 5.27624,-0.480795 -3.82137,3.665275 z m 0,0"
       transform="matrix(1.251185,0,0,1.251185,5.004741,348.96789)"
       id="path1058" />
    <path
       style="fill:none;stroke:#000000;stroke-width:1;stroke-linecap:butt;stroke-linejoin:miter;stroke-miterlimit:4;stroke-opacity:1"
       d="M 145.81421,-35.387637 C 136.804,-54.082412 122.45823,-83.851063 112.66439,-104.17554"
       transform="matrix(1.251185,0,0,1.251185,5.004741,348.96789)"
       id="path1060" />
    <path
       style="fill:#000000;fill-opacity:1;fill-rule:nonzero;stroke:#000000;stroke-width:1;stroke-linecap:butt;stroke-linejoin:miter;stroke-miterlimit:4;stroke-opacity:1"
       d="m 110.99722,-103.60733 -0.59631,-5.26376 3.74957,3.74333 z m 0,0"
       transform="matrix(1.251185,0,0,1.251185,5.004741,348.96789)"
       id="path1062" />
    <path
       style="fill:none;stroke:#00ba00;stroke-width:1;stroke-linecap:butt;stroke-linejoin:miter;stroke-miterlimit:4;stroke-opacity:1"
       d="m 402.02754,-186.95019 c -5.02024,20.66479 -13.2718,54.64819 -18.76034,77.24551"
       transform="matrix(1.251185,0,0,1.251185,5.004741,348.96789)"
       id="path1064" />
    <path
       style="fill:#00ba00;fill-opacity:1;fill-rule:nonzero;stroke:#00ba00;stroke-width:1;stroke-linecap:butt;stroke-linejoin:miter;stroke-miterlimit:4;stroke-opacity:1"
       d="m 384.9531,-109.227 -2.88164,4.44578 -0.52138,-5.27312 z m 0,0"
       transform="matrix(1.251185,0,0,1.251185,5.004741,348.96789)"
       id="path1066" />
    <path
       style="fill:none;stroke:#0000ff;stroke-width:1;stroke-linecap:butt;stroke-linejoin:miter;stroke-miterlimit:4;stroke-dasharray:5, 2;stroke-opacity:1"
       d="m 427.49402,-215.495 c 16.72164,-8.3858 40.07138,-20.09657 57.36436,-28.76647"
       transform="matrix(1.251185,0,0,1.251185,5.004741,348.96789)"
       id="path1068" />
    <path
       style="fill:none;stroke:#0000ff;stroke-width:1;stroke-linecap:butt;stroke-linejoin:miter;stroke-miterlimit:4;stroke-opacity:1"
       d="m 488.77966,-248.18588 -3.68713,3.80577 5.25439,-0.67748 z m 0,0"
       transform="matrix(1.251185,0,0,1.251185,5.004741,348.96789)"
       id="path1070" />
    <path
       style="fill:none;stroke:#ba0000;stroke-width:1;stroke-linecap:butt;stroke-linejoin:miter;stroke-miterlimit:4;stroke-opacity:1"
       d="m 384.87505,-215.05791 c -18.71039,-8.82289 -45.77847,-21.58891 -65.08517,-30.69278"
       transform="matrix(1.251185,0,0,1.251185,5.004741,348.96789)"
       id="path1072" />
    <path
       style="fill:#ba0000;fill-opacity:1;fill-rule:nonzero;stroke:#ba0000;stroke-width:1;stroke-linecap:butt;stroke-linejoin:miter;stroke-miterlimit:4;stroke-opacity:1"
       d="m 318.83454,-244.26772 -3.77455,-3.71523 5.26688,0.54948 z m 0,0"
       transform="matrix(1.251185,0,0,1.251185,5.004741,348.96789)"
       id="path1074" />
    <path
       style="fill:none;stroke:#ba0000;stroke-width:1;stroke-linecap:butt;stroke-linejoin:miter;stroke-miterlimit:4;stroke-opacity:1"
       d="m 57.382427,-50.367185 c 9.103868,-15.460341 22.381904,-38.010836 32.09457,-54.504575"
       transform="matrix(1.251185,0,0,1.251185,5.004741,348.96789)"
       id="path1076" />
    <path
       style="fill:#ba0000;fill-opacity:1;fill-rule:nonzero;stroke:#ba0000;stroke-width:1;stroke-linecap:butt;stroke-linejoin:miter;stroke-miterlimit:4;stroke-opacity:1"
       d="m 88.068957,-105.93013 4.046164,-3.42175 -1.030273,5.19819 z m 0,0"
       transform="matrix(1.251185,0,0,1.251185,5.004741,348.96789)"
       id="path1078" />
    <path
       style="fill:none;stroke:#0000ff;stroke-width:1;stroke-linecap:butt;stroke-linejoin:miter;stroke-miterlimit:4;stroke-dasharray:5, 2;stroke-opacity:1"
       d="m 91.550032,-26.649047 c 9.047668,1.248816 18.448138,2.547584 27.133648,3.746448"
       transform="matrix(1.251185,0,0,1.251185,5.004741,348.96789)"
       id="path1080" />
    <path
       style="fill:none;stroke:#0000ff;stroke-width:1;stroke-linecap:butt;stroke-linejoin:miter;stroke-miterlimit:4;stroke-opacity:1"
       d="m 124.22842,-23.904774 -5.19195,1.049005 4.71428,2.419581 z m 0,0"
       transform="matrix(1.251185,0,0,1.251185,5.004741,348.96789)"
       id="path1082" />
  </g>
  <g
     id="g2070"
     transform="matrix(0.27488365,0,0,0.27488365,236.92537,-36.434731)">
    <rect
       style="fill:#666666;stroke:#666666;stroke-width:2.83465;stroke-miterlimit:4;stroke-dasharray:none"
       id="rect17448"
       width="2443.8086"
       height="369.12473"
       x="-855.99414"
       y="138.46333" />
    <rect
       style="fill:#ffffff;stroke:#000000;stroke-width:2.83465;stroke-miterlimit:4;stroke-dasharray:none"
       id="rect13531"
       width="2443.8086"
       height="369.12473"
       x="-860.49414"
       y="133.96333" />
    <text
       xml:space="preserve"
       style="font-style:normal;font-variant:normal;font-weight:normal;font-stretch:normal;font-size:30px;line-height:1.25;font-family:'JetBrains Mono';-inkscape-font-specification:'JetBrains Mono';fill:#000000;fill-opacity:1;stroke:none;stroke-width:0.75"
       x="-840.74316"
       y="172.96236"
       id="text2101"><tspan
         sodipodi:role="line"
         style="font-style:normal;font-variant:normal;font-weight:normal;font-stretch:normal;font-family:'Courier New';-inkscape-font-specification:'Courier New';stroke-width:0.75"
         x="-840.74316"
         y="172.96236"
         id="tspan14259">When I'm tired, I often get cranky. [[tired-&gt;cranky||causal_pos||1]]</tspan><tspan
         sodipodi:role="line"
         style="font-style:normal;font-variant:normal;font-weight:normal;font-stretch:normal;font-family:'Courier New';-inkscape-font-specification:'Courier New';stroke-width:0.75"
         x="-840.74316"
         y="210.70085"
         id="tspan15932">In general, such things matter for my mood. [[cranky-&gt;mood||structural||1]]</tspan><tspan
         sodipodi:role="line"
         style="font-style:normal;font-variant:normal;font-weight:normal;font-stretch:normal;font-family:'Courier New';-inkscape-font-specification:'Courier New';stroke-width:0.75"
         x="-840.74316"
         y="248.43933"
         id="tspan15934">For example, when I'm hungry, I also get cranky. [[hungry-&gt;cranky||causal_pos||1]] [[hungry-&gt;cranky||causal_pos||1]]</tspan><tspan
         sodipodi:role="line"
         style="font-style:normal;font-variant:normal;font-weight:normal;font-stretch:normal;font-family:'Courier New';-inkscape-font-specification:'Courier New';stroke-width:0.75"
         x="-840.74316"
         y="286.17783"
         id="tspan15936">And when I have coffee, I feel cheerful. [[cheerful-&gt;mood||structural||1]] [[coffee-&gt;cheerful||causal_pos||1]]</tspan><tspan
         sodipodi:role="line"
         style="font-style:normal;font-variant:normal;font-weight:normal;font-stretch:normal;font-family:'Courier New';-inkscape-font-specification:'Courier New';stroke-width:0.75"
         x="-840.74316"
         y="323.91632"
         id="tspan15938">But that's also because it's a drug I think. [[coffee-&gt;drug||structural||1]]</tspan><tspan
         sodipodi:role="line"
         style="font-style:normal;font-variant:normal;font-weight:normal;font-stretch:normal;font-family:'Courier New';-inkscape-font-specification:'Courier New';stroke-width:0.75"
         x="-840.74316"
         y="361.65482"
         id="tspan15940">And coffee also makes me feel less tired of course. [[coffee-&gt;tired||causal_neg||1]]</tspan><tspan
         sodipodi:role="line"
         style="font-style:normal;font-variant:normal;font-weight:normal;font-stretch:normal;font-family:'Courier New';-inkscape-font-specification:'Courier New';stroke-width:0.75"
         x="-840.74316"
         y="399.39331"
         id="tspan15942">My mood is also influenced by the weather. [[weather-&gt;mood||causal||1]]</tspan><tspan
         sodipodi:role="line"
         style="font-style:normal;font-variant:normal;font-weight:normal;font-stretch:normal;font-family:'Courier New';-inkscape-font-specification:'Courier New';stroke-width:0.75"
         x="-840.74316"
         y="437.13181"
         id="tspan15944">Actually, the weather also matter for how hungry I get. [[weather-&gt;hungry||causal||1]]</tspan><tspan
         sodipodi:role="line"
         style="font-style:normal;font-variant:normal;font-weight:normal;font-stretch:normal;font-family:'Courier New';-inkscape-font-specification:'Courier New';stroke-width:0.75"
         x="-840.74316"
         y="474.87027"
         id="tspan15946">For example, if it's very warm, I get much less hungry. [[warmWeather-&gt;weather||structural||1]] [[warmWeather-&gt;hungry||causal_neg||1]]</tspan><tspan
         sodipodi:role="line"
         style="font-style:normal;font-variant:normal;font-weight:normal;font-stretch:normal;font-family:'Courier New';-inkscape-font-specification:'Courier New';stroke-width:0.75"
         x="-840.74316"
         y="512.60876"
         id="tspan15948" /></text>
  </g>
</svg>
